EESchema Schematic File Version 4
EELAYER 30 0
EELAYER END
$Descr A4 11693 8268
encoding utf-8
Sheet 1 1
Title ""
Date ""
Rev ""
Comp ""
Comment1 ""
Comment2 ""
Comment3 ""
Comment4 ""
$EndDescr
$Comp
L fab:FTDI-SMD-HEADER M1
U 1 1 5ED621FE
P 1425 3025
F 0 "M1" H 1425 3025 45  0001 C CNN
F 1 "FTDI-SMD-HEADER" H 1425 3025 45  0001 C CNN
F 2 "custom-footprints:FTDI_Header_1x06_P2.54mm_Horizontal" H 1455 3175 20  0001 C CNN
F 3 "" H 1425 3025 50  0001 C CNN
	1    1425 3025
	-1   0    0    1   
$EndComp
$Comp
L fab:UPDI-SMD-HEADER M2
U 1 1 5ED63FBC
P 1450 3675
F 0 "M2" H 1450 3675 45  0001 C CNN
F 1 "UPDI-SMD-HEADER" H 1450 3675 45  0001 C CNN
F 2 "custom-footprints:UPDI_Header_1x02_P2.54mm_Horizontal" H 1480 3825 20  0001 C CNN
F 3 "" H 1450 3675 50  0001 C CNN
	1    1450 3675
	-1   0    0    1   
$EndComp
Wire Wire Line
	1450 4075 1800 4075
Wire Wire Line
	1450 4175 1800 4175
Text Label 1800 4175 2    50   ~ 0
UPDI
Text Label 1800 4075 2    50   ~ 0
GND
Wire Wire Line
	1425 3525 1800 3525
Wire Wire Line
	1425 3325 1800 3325
Wire Wire Line
	1425 3225 1800 3225
Wire Wire Line
	1425 3125 1800 3125
NoConn ~ 1425 3025
NoConn ~ 1425 3425
Text Label 1800 3525 2    50   ~ 0
GND
Text Label 1800 3225 2    50   ~ 0
RX
Text Label 1800 3125 2    50   ~ 0
TX
$Comp
L Device:LED D3
U 1 1 5ED891F5
P 1475 1025
F 0 "D3" H 1468 770 50  0000 C CNN
F 1 "PWR_LED" H 1468 861 50  0000 C CNN
F 2 "LED_SMD:LED_1206_3216Metric_Pad1.42x1.75mm_HandSolder" H 1475 1025 50  0001 C CNN
F 3 "~" H 1475 1025 50  0001 C CNN
	1    1475 1025
	-1   0    0    1   
$EndComp
$Comp
L Device:R R2
U 1 1 5ED891FF
P 1900 1025
F 0 "R2" V 1693 1025 50  0000 C CNN
F 1 "499" V 1784 1025 50  0000 C CNN
F 2 "fab:R_1206" V 1830 1025 50  0001 C CNN
F 3 "~" H 1900 1025 50  0001 C CNN
	1    1900 1025
	0    1    1    0   
$EndComp
Wire Wire Line
	1625 1025 1750 1025
Wire Wire Line
	2050 1025 2375 1025
Wire Wire Line
	1325 1025 1025 1025
Text Label 1025 1025 0    50   ~ 0
5V
Text Label 2375 1025 2    50   ~ 0
GND
$Comp
L Device:LED D5
U 1 1 5ED8C9EA
P 3050 1050
F 0 "D5" H 3043 795 50  0000 C CNN
F 1 "RX_LED" H 3043 886 50  0000 C CNN
F 2 "LED_SMD:LED_1206_3216Metric_Pad1.42x1.75mm_HandSolder" H 3050 1050 50  0001 C CNN
F 3 "~" H 3050 1050 50  0001 C CNN
	1    3050 1050
	-1   0    0    1   
$EndComp
$Comp
L Device:R R4
U 1 1 5ED8C9F4
P 3475 1050
F 0 "R4" V 3268 1050 50  0000 C CNN
F 1 "499" V 3359 1050 50  0000 C CNN
F 2 "fab:R_1206" V 3405 1050 50  0001 C CNN
F 3 "~" H 3475 1050 50  0001 C CNN
	1    3475 1050
	0    1    1    0   
$EndComp
Wire Wire Line
	3200 1050 3325 1050
Wire Wire Line
	3625 1050 3950 1050
Wire Wire Line
	2900 1050 2600 1050
Text Label 2600 1050 0    50   ~ 0
RX
Text Label 3950 1050 2    50   ~ 0
GND
$Comp
L Device:LED D4
U 1 1 5ED909B3
P 3075 1425
F 0 "D4" H 3068 1170 50  0000 C CNN
F 1 "TX_LED" H 3068 1261 50  0000 C CNN
F 2 "LED_SMD:LED_1206_3216Metric_Pad1.42x1.75mm_HandSolder" H 3075 1425 50  0001 C CNN
F 3 "~" H 3075 1425 50  0001 C CNN
	1    3075 1425
	-1   0    0    1   
$EndComp
$Comp
L Device:R R3
U 1 1 5ED909BD
P 3500 1425
F 0 "R3" V 3293 1425 50  0000 C CNN
F 1 "499" V 3384 1425 50  0000 C CNN
F 2 "fab:R_1206" V 3430 1425 50  0001 C CNN
F 3 "~" H 3500 1425 50  0001 C CNN
	1    3500 1425
	0    1    1    0   
$EndComp
Wire Wire Line
	3225 1425 3350 1425
Wire Wire Line
	3650 1425 3975 1425
Wire Wire Line
	2925 1425 2625 1425
Text Label 2625 1425 0    50   ~ 0
TX
Text Label 3975 1425 2    50   ~ 0
GND
$Comp
L Device:LED D6
U 1 1 5ED9405B
P 3050 1875
F 0 "D6" H 3043 1620 50  0000 C CNN
F 1 "LED" H 3043 1711 50  0000 C CNN
F 2 "LED_SMD:LED_1206_3216Metric_Pad1.42x1.75mm_HandSolder" H 3050 1875 50  0001 C CNN
F 3 "~" H 3050 1875 50  0001 C CNN
	1    3050 1875
	-1   0    0    1   
$EndComp
$Comp
L Device:R R5
U 1 1 5ED94065
P 3475 1875
F 0 "R5" V 3268 1875 50  0000 C CNN
F 1 "499" V 3359 1875 50  0000 C CNN
F 2 "fab:R_1206" V 3405 1875 50  0001 C CNN
F 3 "~" H 3475 1875 50  0001 C CNN
	1    3475 1875
	0    1    1    0   
$EndComp
Wire Wire Line
	3200 1875 3325 1875
Wire Wire Line
	3625 1875 3950 1875
Wire Wire Line
	2900 1875 2600 1875
Text Label 2600 1875 0    50   ~ 0
LED
Text Label 3950 1875 2    50   ~ 0
GND
$Comp
L Switch:SW_Push SW1
U 1 1 5ED97E93
P 1725 1475
F 0 "SW1" H 1725 1760 50  0000 C CNN
F 1 "SW_Push" H 1725 1669 50  0000 C CNN
F 2 "custom-footprints:TACTILE_SW_B3S" H 1725 1675 50  0001 C CNN
F 3 "~" H 1725 1675 50  0001 C CNN
	1    1725 1475
	1    0    0    -1  
$EndComp
Wire Wire Line
	1925 1475 2375 1475
Wire Wire Line
	1525 1475 1025 1475
Text Label 2375 1475 2    50   ~ 0
GND
Text Label 1025 1475 0    50   ~ 0
BUTTON
$Comp
L fab:D_Schottky D1
U 1 1 5EDC23BE
P 1950 3325
F 0 "D1" H 1950 3109 50  0000 C CNN
F 1 "D_Schottky" H 1850 3200 50  0000 C CNN
F 2 "Diode_SMD:D_SOD-123" H 1950 3325 50  0001 C CNN
F 3 "" H 1950 3325 50  0001 C CNN
	1    1950 3325
	-1   0    0    1   
$EndComp
$Comp
L fab:ATtiny3216 U1
U 1 1 5EE2F8B1
P 3950 3925
F 0 "U1" H 3950 4892 50  0000 C CNN
F 1 "ATtiny3216" H 3950 4801 50  0000 C CNN
F 2 "fab:fab-SOIC-20_7.5x12.8mm_P1.27mm" H 3950 3925 50  0001 C CIN
F 3 "" H 3950 3925 50  0001 C CNN
	1    3950 3925
	1    0    0    -1  
$EndComp
Wire Wire Line
	6300 3500 5925 3500
Wire Wire Line
	6300 3700 5925 3700
Wire Wire Line
	6300 3800 5925 3800
Wire Wire Line
	6300 3900 5925 3900
Wire Wire Line
	6300 4000 5925 4000
Wire Wire Line
	6300 4100 5925 4100
Text Label 5925 3700 0    50   ~ 0
MS1
Text Label 5925 3800 0    50   ~ 0
MS2
Text Label 5925 3900 0    50   ~ 0
RESET
Text Label 5925 4000 0    50   ~ 0
SLEEP
Text Label 5925 3500 0    50   ~ 0
5V
Text Label 5925 4100 0    50   ~ 0
STEP
Wire Wire Line
	6300 3600 5925 3600
Wire Wire Line
	6300 4200 5925 4200
Text Label 5925 3600 0    50   ~ 0
ENABLE
Text Label 5925 4200 0    50   ~ 0
DIR
$Comp
L Device:C C1
U 1 1 5EE7DF1A
P 3950 2725
F 0 "C1" V 3698 2725 50  0000 C CNN
F 1 "1uF" V 3789 2725 50  0000 C CNN
F 2 "Capacitor_SMD:C_1206_3216Metric_Pad1.42x1.75mm_HandSolder" H 3988 2575 50  0001 C CNN
F 3 "~" H 3950 2725 50  0001 C CNN
	1    3950 2725
	0    1    1    0   
$EndComp
Wire Wire Line
	3800 2725 3350 2725
Wire Wire Line
	3350 2725 3350 3250
Wire Wire Line
	4100 2725 4725 2725
Wire Wire Line
	4725 2725 4725 2925
Wire Wire Line
	4550 3250 4725 3250
Wire Wire Line
	4550 3400 5075 3400
Wire Wire Line
	4550 4300 5075 4300
Text Label 5075 4300 2    50   ~ 0
STEP
Wire Wire Line
	4550 3850 5075 3850
Wire Wire Line
	4550 4000 5075 4000
Wire Wire Line
	4550 4150 5075 4150
Wire Wire Line
	4550 4450 5075 4450
Text Label 5075 4000 2    50   ~ 0
RESET
Text Label 5075 4150 2    50   ~ 0
SLEEP
Text Label 5075 3850 2    50   ~ 0
UPDI
Text Label 5075 3550 2    50   ~ 0
MS1
Text Label 5075 3700 2    50   ~ 0
MS2
Text Label 5075 3250 2    50   ~ 0
GND
Wire Wire Line
	4550 3550 5075 3550
Wire Wire Line
	4550 3700 5075 3700
Wire Wire Line
	3350 4600 2825 4600
Text Label 2825 4450 0    50   ~ 0
TX
Text Label 2825 4300 0    50   ~ 0
RX
Text Label 2825 4600 0    50   ~ 0
BUTTON
Text Label 2825 3400 0    50   ~ 0
LED
Wire Wire Line
	3350 4300 2825 4300
Wire Wire Line
	3350 4450 2825 4450
Wire Wire Line
	3350 2725 3350 2500
Connection ~ 3350 2725
Text Label 3350 2350 0    50   ~ 0
5V
Connection ~ 4725 3250
Wire Wire Line
	4725 3250 5075 3250
Text Label 5075 3400 2    50   ~ 0
ENABLE
Text Label 5075 4450 2    50   ~ 0
DIR
Wire Wire Line
	6300 4300 5925 4300
Text Label 5925 4300 0    50   ~ 0
GND
NoConn ~ 4550 4600
NoConn ~ 3350 3550
NoConn ~ 3350 4150
NoConn ~ 3350 4000
NoConn ~ 3350 3850
NoConn ~ 3350 3700
$Comp
L fab:PINHD-1x09-HEADER M3
U 1 1 5EE4A40D
P 6300 4000
F 0 "M3" H 6300 4000 45  0001 C CNN
F 1 "PINHD-1x09-HEADER" H 6300 4000 45  0001 C CNN
F 2 "fab:fab-1X09" H 6330 4150 20  0001 C CNN
F 3 "" H 6300 4000 50  0001 C CNN
	1    6300 4000
	1    0    0    -1  
$EndComp
$Comp
L power:PWR_FLAG #FLG0101
U 1 1 5EE5C23F
P 3350 2500
F 0 "#FLG0101" H 3350 2575 50  0001 C CNN
F 1 "PWR_FLAG" V 3350 2627 50  0000 L CNN
F 2 "" H 3350 2500 50  0001 C CNN
F 3 "~" H 3350 2500 50  0001 C CNN
	1    3350 2500
	0    -1   -1   0   
$EndComp
Connection ~ 3350 2500
Wire Wire Line
	3350 2500 3350 2350
$Comp
L power:PWR_FLAG #FLG0102
U 1 1 5EE5D1F2
P 4725 2925
F 0 "#FLG0102" H 4725 3000 50  0001 C CNN
F 1 "PWR_FLAG" V 4725 3053 50  0000 L CNN
F 2 "" H 4725 2925 50  0001 C CNN
F 3 "~" H 4725 2925 50  0001 C CNN
	1    4725 2925
	0    1    1    0   
$EndComp
Connection ~ 4725 2925
Wire Wire Line
	4725 2925 4725 3250
Wire Wire Line
	2100 3325 2300 3325
Text Label 2300 3325 2    50   ~ 0
5V
Wire Wire Line
	3350 3400 2825 3400
$EndSCHEMATC
