EESchema Schematic File Version 4
EELAYER 30 0
EELAYER END
$Descr A4 11693 8268
encoding utf-8
Sheet 1 1
Title ""
Date ""
Rev ""
Comp ""
Comment1 ""
Comment2 ""
Comment3 ""
Comment4 ""
$EndDescr
Text Label 5150 3775 2    50   ~ 0
motor_Ap
Text Label 5150 4075 2    50   ~ 0
motor_Am
Text Label 5150 3675 2    50   ~ 0
motor_Bp
Text Label 5150 3375 2    50   ~ 0
motor_Bm
$Comp
L Device:C C2
U 1 1 5EBFD583
P 2325 4475
F 0 "C2" V 2500 4475 50  0000 C CNN
F 1 "0.22uF" V 2600 4475 50  0000 C CNN
F 2 "Capacitor_SMD:C_1206_3216Metric_Pad1.42x1.75mm_HandSolder" H 2363 4325 50  0001 C CNN
F 3 "~" H 2325 4475 50  0001 C CNN
	1    2325 4475
	0    1    1    0   
$EndComp
$Comp
L power:GND #PWR0102
U 1 1 5EC03CD9
P 4200 4625
F 0 "#PWR0102" H 4200 4375 50  0001 C CNN
F 1 "GND" H 4205 4452 50  0000 C CNN
F 2 "" H 4200 4625 50  0001 C CNN
F 3 "" H 4200 4625 50  0001 C CNN
	1    4200 4625
	1    0    0    -1  
$EndComp
$Comp
L Device:C C3
U 1 1 5EBFBEB5
P 2700 3475
F 0 "C3" V 2450 3475 50  0000 C CNN
F 1 "0.22uF" V 2550 3475 50  0000 C CNN
F 2 "Capacitor_SMD:C_1206_3216Metric_Pad1.42x1.75mm_HandSolder" H 2738 3325 50  0001 C CNN
F 3 "~" H 2700 3475 50  0001 C CNN
	1    2700 3475
	0    1    1    0   
$EndComp
$Comp
L fab:STEPPER_DRIVER_A4982 U3
U 1 1 5EC35540
P 4200 3725
F 0 "U3" H 4200 4540 50  0000 C CNN
F 1 "STEPPER_DRIVER_A4982" H 4200 4449 50  0000 C CNN
F 2 "fab:24-TSSOP-EP" H 4200 3725 50  0001 C CNN
F 3 "https://www.allegromicro.com/~/media/Files/Datasheets/A4982-Datasheet.ashx" H 4200 3725 50  0001 C CNN
	1    4200 3725
	1    0    0    -1  
$EndComp
Wire Wire Line
	4750 3775 5150 3775
Wire Wire Line
	4750 3675 5150 3675
Wire Wire Line
	4750 3375 5150 3375
Wire Wire Line
	4750 4075 5150 4075
Wire Wire Line
	5525 3975 4750 3975
Wire Wire Line
	5525 4275 5525 4475
Wire Wire Line
	5525 4475 4750 4475
Wire Wire Line
	4200 4625 4200 4475
Connection ~ 4200 4475
$Comp
L Device:R R9
U 1 1 5EC60193
P 6100 3875
F 0 "R9" V 5893 3875 50  0000 C CNN
F 1 "0.1" V 5984 3875 50  0000 C CNN
F 2 "fab:R_1206" V 6030 3875 50  0001 C CNN
F 3 "~" H 6100 3875 50  0001 C CNN
	1    6100 3875
	0    1    1    0   
$EndComp
$Comp
L Device:R R8
U 1 1 5EC619A9
P 6100 3575
F 0 "R8" V 5893 3575 50  0000 C CNN
F 1 "0.1" V 5984 3575 50  0000 C CNN
F 2 "fab:R_1206" V 6030 3575 50  0001 C CNN
F 3 "~" H 6100 3575 50  0001 C CNN
	1    6100 3575
	0    1    1    0   
$EndComp
Wire Wire Line
	4750 3575 5950 3575
Wire Wire Line
	4750 3875 5950 3875
Wire Wire Line
	6250 3575 6250 3875
$Comp
L Device:C C6
U 1 1 5EC696C6
P 5525 4125
F 0 "C6" H 5650 4100 50  0000 L CNN
F 1 "100uF" H 5575 4000 50  0000 L CNN
F 2 "Capacitor_SMD:C_1206_3216Metric_Pad1.42x1.75mm_HandSolder" H 5563 3975 50  0001 C CNN
F 3 "~" H 5525 4125 50  0001 C CNN
	1    5525 4125
	1    0    0    -1  
$EndComp
Wire Wire Line
	6250 3875 6250 4475
Wire Wire Line
	6250 4475 5825 4475
Connection ~ 6250 3875
Wire Wire Line
	3650 3475 2850 3475
Wire Wire Line
	5525 3475 5525 3975
Wire Wire Line
	4750 3475 5525 3475
Connection ~ 5525 3975
Wire Wire Line
	4750 4175 5150 4175
Text Label 5150 4175 2    50   ~ 0
DIR
Text Label 2175 2400 0    50   ~ 0
5V
$Comp
L Device:C C5
U 1 1 5ECD5765
P 3425 3175
F 0 "C5" V 3173 3175 50  0000 C CNN
F 1 "0.1uF" V 3264 3175 50  0000 C CNN
F 2 "Capacitor_SMD:C_1206_3216Metric_Pad1.42x1.75mm_HandSolder" H 3463 3025 50  0001 C CNN
F 3 "~" H 3425 3175 50  0001 C CNN
	1    3425 3175
	0    1    1    0   
$EndComp
Wire Wire Line
	3275 3175 3275 3275
Wire Wire Line
	3275 3275 3650 3275
Wire Wire Line
	3650 3175 3575 3175
$Comp
L Device:C C4
U 1 1 5ECDDAF1
P 3175 3050
F 0 "C4" H 2950 3250 50  0000 L CNN
F 1 "0.1uF" H 2900 3150 50  0000 L CNN
F 2 "Capacitor_SMD:C_1206_3216Metric_Pad1.42x1.75mm_HandSolder" H 3213 2900 50  0001 C CNN
F 3 "~" H 3175 3050 50  0001 C CNN
	1    3175 3050
	1    0    0    -1  
$EndComp
Wire Wire Line
	3175 2775 5525 2775
Wire Wire Line
	5525 2775 5525 3475
Connection ~ 5525 3475
Wire Wire Line
	3650 4175 3125 4175
Wire Wire Line
	3650 3575 3125 3575
Wire Wire Line
	3650 3675 3125 3675
Wire Wire Line
	3650 3775 3125 3775
Wire Wire Line
	3650 3875 2550 3875
Text Label 3125 4175 0    50   ~ 0
STEP
Text Label 3125 3775 0    50   ~ 0
RESET
Text Label 3125 3675 0    50   ~ 0
MS2
Text Label 3125 3575 0    50   ~ 0
MS1
Wire Wire Line
	4750 3275 5150 3275
Wire Wire Line
	4750 3175 6250 3175
Wire Wire Line
	6250 3175 6250 3575
Connection ~ 6250 3575
Text Label 5150 3275 2    50   ~ 0
ENABLE
Wire Wire Line
	3175 2775 3175 2900
Wire Wire Line
	3175 3200 3175 3375
Wire Wire Line
	3175 3375 3650 3375
$Comp
L Connector_Generic:Conn_02x02_Odd_Even J2
U 1 1 5ED14038
P 7850 3600
F 0 "J2" H 7900 3817 50  0000 C CNN
F 1 "Stepper_Conn" H 7900 3726 50  0000 C CNN
F 2 "fab:fab-2X02SMD" H 7850 3600 50  0001 C CNN
F 3 "~" H 7850 3600 50  0001 C CNN
	1    7850 3600
	1    0    0    -1  
$EndComp
Wire Wire Line
	7650 3600 7175 3600
Wire Wire Line
	7650 3700 7175 3700
Wire Wire Line
	8150 3600 8625 3600
Wire Wire Line
	8150 3700 8625 3700
Text Label 7175 3600 0    50   ~ 0
motor_Ap
Text Label 7175 3700 0    50   ~ 0
motor_Am
Text Label 8625 3600 2    50   ~ 0
motor_Bp
Text Label 8625 3700 2    50   ~ 0
motor_Bm
Wire Wire Line
	5525 2775 5525 2475
Text Label 5525 2475 0    50   ~ 0
9V
Wire Wire Line
	3650 4275 3125 4275
$Comp
L Regulator_Linear:LM3480-5.0 U1
U 1 1 5ED4A087
P 3475 1275
F 0 "U1" H 3475 1517 50  0000 C CNN
F 1 "LM3480-5.0" H 3475 1426 50  0000 C CNN
F 2 "Package_TO_SOT_SMD:SOT-23" H 3475 1500 50  0001 C CIN
F 3 "http://www.ti.com/lit/ds/symlink/lm3480.pdf" H 3475 1275 50  0001 C CNN
	1    3475 1275
	1    0    0    -1  
$EndComp
$Comp
L power:GND #PWR0103
U 1 1 5ED4A8A6
P 3825 1700
F 0 "#PWR0103" H 3825 1450 50  0001 C CNN
F 1 "GND" H 3830 1527 50  0000 C CNN
F 2 "" H 3825 1700 50  0001 C CNN
F 3 "" H 3825 1700 50  0001 C CNN
	1    3825 1700
	1    0    0    -1  
$EndComp
Wire Wire Line
	3175 1275 2850 1275
Text Label 2850 1275 0    50   ~ 0
9V
Text Label 4325 1275 2    50   ~ 0
5V
Connection ~ 5525 2775
Wire Wire Line
	4200 1275 4325 1275
Wire Wire Line
	2550 3475 2550 3875
Connection ~ 2550 3875
$Comp
L fab:R_POT_10K_Trimmer RV1
U 1 1 5EE4C252
P 2975 4275
F 0 "RV1" H 2905 4321 50  0000 R CNN
F 1 "R_POT_10K_Trimmer" V 2825 4250 50  0000 R CNN
F 2 "fab:Potentiometer_TT_Model-23_4.5x5.0x3.0mm" H 2975 4275 50  0001 C CNN
F 3 "https://www.ttelectronics.com/TTElectronics/media/ProductFiles/Trimmers/Datasheets/23.pdf" H 2975 4275 50  0001 C CNN
	1    2975 4275
	1    0    0    -1  
$EndComp
Wire Wire Line
	2550 4475 2975 4475
Wire Wire Line
	2975 4425 2975 4475
Connection ~ 2975 4475
Wire Wire Line
	2975 4475 4200 4475
Wire Wire Line
	2975 4125 2975 3075
$Comp
L Device:R R7
U 1 1 5EE8EDA4
P 2425 3075
F 0 "R7" V 2218 3075 50  0000 C CNN
F 1 "50k" V 2309 3075 50  0000 C CNN
F 2 "fab:R_1206" V 2355 3075 50  0001 C CNN
F 3 "~" H 2425 3075 50  0001 C CNN
	1    2425 3075
	0    1    1    0   
$EndComp
Wire Wire Line
	2175 2400 2175 3075
Wire Wire Line
	2975 3075 2575 3075
Wire Wire Line
	2275 3075 2175 3075
Connection ~ 2175 3075
Wire Wire Line
	2175 3075 2175 4075
Wire Wire Line
	1675 1075 1675 925 
Wire Wire Line
	1875 1075 1675 1075
Wire Wire Line
	1675 1675 1675 1775
Connection ~ 1675 1675
Wire Wire Line
	1875 1675 1675 1675
$Comp
L power:GND #PWR0101
U 1 1 5EBF6970
P 1675 1775
F 0 "#PWR0101" H 1675 1525 50  0001 C CNN
F 1 "GND" H 1680 1602 50  0000 C CNN
F 2 "" H 1675 1775 50  0001 C CNN
F 3 "" H 1675 1775 50  0001 C CNN
	1    1675 1775
	1    0    0    -1  
$EndComp
Connection ~ 1675 1075
Wire Wire Line
	1675 1325 1675 1075
Wire Wire Line
	1675 1525 1675 1675
Wire Wire Line
	1675 1425 1675 1525
Connection ~ 1675 1525
$Comp
L Connector:Barrel_Jack_Switch J1
U 1 1 5EBF4FE0
P 1375 1425
F 0 "J1" H 1432 1742 50  0000 C CNN
F 1 "Barrel_Jack_Switch" V 1075 1425 50  0000 C CNN
F 2 "custom-footprints:Power_Barrel_Jack_PJ-002AH-SMT-TR" H 1425 1385 50  0001 C CNN
F 3 "~" H 1425 1385 50  0001 C CNN
	1    1375 1425
	1    0    0    -1  
$EndComp
Text Label 1675 925  0    50   ~ 0
9V
$Comp
L power:PWR_FLAG #FLG0101
U 1 1 5EBF6FEF
P 1875 1075
F 0 "#FLG0101" H 1875 1150 50  0001 C CNN
F 1 "PWR_FLAG" V 1875 1203 50  0000 L CNN
F 2 "" H 1875 1075 50  0001 C CNN
F 3 "~" H 1875 1075 50  0001 C CNN
	1    1875 1075
	0    1    1    0   
$EndComp
$Comp
L power:PWR_FLAG #FLG0102
U 1 1 5EBF7A4E
P 1875 1675
F 0 "#FLG0102" H 1875 1750 50  0001 C CNN
F 1 "PWR_FLAG" V 1875 1803 50  0000 L CNN
F 2 "" H 1875 1675 50  0001 C CNN
F 3 "~" H 1875 1675 50  0001 C CNN
	1    1875 1675
	0    1    1    0   
$EndComp
Wire Wire Line
	3475 1575 3825 1575
Wire Wire Line
	3825 1700 3825 1575
Wire Wire Line
	4750 4275 4750 4475
Connection ~ 4750 4475
Wire Wire Line
	4750 4475 4200 4475
Connection ~ 5525 4475
$Comp
L Device:R R6
U 1 1 5ED305A4
P 1875 4125
F 0 "R6" H 1875 4475 50  0000 C CNN
F 1 "5k" H 1875 4350 50  0000 C CNN
F 2 "fab:R_1206" V 1805 4125 50  0001 C CNN
F 3 "~" H 1875 4125 50  0001 C CNN
	1    1875 4125
	1    0    0    -1  
$EndComp
Wire Wire Line
	2550 3875 2550 4475
Wire Wire Line
	2175 4075 3650 4075
Wire Wire Line
	3650 3975 1875 3975
Wire Wire Line
	2175 4075 2175 4275
Connection ~ 2175 4075
Wire Wire Line
	1875 4275 2175 4275
Connection ~ 2175 4275
Wire Wire Line
	2175 4275 2175 4475
Wire Wire Line
	2475 4475 2550 4475
Connection ~ 2550 4475
$Comp
L Device:C C8
U 1 1 5ED99428
P 5825 3675
F 0 "C8" H 5625 3625 50  0000 L CNN
F 1 "1uF" H 5625 3550 50  0000 L CNN
F 2 "Capacitor_SMD:C_1206_3216Metric_Pad1.42x1.75mm_HandSolder" H 5863 3525 50  0001 C CNN
F 3 "~" H 5825 3675 50  0001 C CNN
	1    5825 3675
	1    0    0    -1  
$EndComp
Wire Wire Line
	5525 3475 5825 3475
Wire Wire Line
	5825 3825 5825 4475
Connection ~ 5825 4475
Wire Wire Line
	5825 4475 5525 4475
Wire Wire Line
	5825 3525 5825 3475
$Comp
L fab:D_Schottky D2
U 1 1 5EDC38C5
P 4050 1275
F 0 "D2" H 4050 1059 50  0000 C CNN
F 1 "D_Schottky" H 4050 1150 50  0000 C CNN
F 2 "Diode_SMD:D_SOD-123" H 4050 1275 50  0001 C CNN
F 3 "" H 4050 1275 50  0001 C CNN
	1    4050 1275
	-1   0    0    1   
$EndComp
$Comp
L Device:C C7
U 1 1 5ECFF4AA
P 3825 1425
F 0 "C7" H 3940 1471 50  0000 L CNN
F 1 "1uF" H 3940 1380 50  0000 L CNN
F 2 "Capacitor_SMD:C_1206_3216Metric_Pad1.42x1.75mm_HandSolder" H 3863 1275 50  0001 C CNN
F 3 "~" H 3825 1425 50  0001 C CNN
	1    3825 1425
	1    0    0    -1  
$EndComp
Wire Wire Line
	3900 1275 3825 1275
Connection ~ 3825 1275
Wire Wire Line
	3825 1275 3775 1275
Connection ~ 3825 1575
Wire Wire Line
	7150 4925 6775 4925
Wire Wire Line
	7150 5125 6775 5125
Wire Wire Line
	7150 5225 6775 5225
Wire Wire Line
	7150 5325 6775 5325
Wire Wire Line
	7150 5425 6775 5425
Wire Wire Line
	7150 5525 6775 5525
Text Label 6775 5125 0    50   ~ 0
MS1
Text Label 6775 5225 0    50   ~ 0
MS2
Text Label 6775 5325 0    50   ~ 0
RESET
Text Label 6775 5425 0    50   ~ 0
SLEEP
Text Label 6775 4925 0    50   ~ 0
5V
Text Label 6775 5525 0    50   ~ 0
STEP
Wire Wire Line
	7150 5025 6775 5025
Wire Wire Line
	7150 5625 6775 5625
Text Label 6775 5625 0    50   ~ 0
DIR
Wire Wire Line
	7150 5725 6775 5725
Text Label 6775 5725 0    50   ~ 0
GND
Wire Wire Line
	1875 3975 1400 3975
Connection ~ 1875 3975
Text Label 1400 3975 0    50   ~ 0
SLEEP
$Comp
L fab:PINHD-1x09-HEADER M1
U 1 1 5EE622B2
P 7150 5425
F 0 "M1" H 7150 5425 45  0001 C CNN
F 1 "PINHD-1x09-HEADER" H 7150 5425 45  0001 C CNN
F 2 "fab:fab-1X09" H 7180 5575 20  0001 C CNN
F 3 "" H 7150 5425 50  0001 C CNN
	1    7150 5425
	1    0    0    -1  
$EndComp
Text Label 6775 5025 0    50   ~ 0
ENABLE
$EndSCHEMATC
